Lecture 6
…
???

There are 21 possible ways to do this because we have a combination problem. Here we need to assign 2 elements out of 7 to treatment group. There are 7 choose 2 ways to do this. 

In R, there is a built in command choose(x,n) that will calculate this value for you. 
---

## Randomization Inference Example 
.pull-left[

```
## # A tibble: 21 × 1
##        x
##    <dbl>
##  1  -7.5
##  2  -7.5
##  3  -7.5
##  4  -4  
##  5  -4  
##  6  -4  
##  7  -4  
##  8  -4  
##  9  -0.5
## 10  -0.5
## # … with 11 more rows
```
…
